Map01: The Computer Facility
0:0:0,0:0:0,24:1:0,24:4:0,24:4:0,24:4:0,24:1:0,24:1:0,24:1:0,24:1:0,24:1:0,24:1:0,24:1:0,24:1:0,24:1:0,24:1:0,24:1:0,24:1:0,24:1:0,24:1:0,24:1:0,24:1:0,24:1:0,24:1:0,24:1:0,24:1:0,24:1:0,24:1:0,24:1:0,24:1:0,24:1:0,24:1:0,24:1:0,24:1:0,24:1:0,24:1:0,24:1:0,0:0:0,0:0:0,0:0:0,0:0:0,0:0:0,0:0:0,0:0:0,0:0:0,0:0:0,0:0:0,0:0:0,0:0:0,0:0:0,0:100:0,
0:0:0,24:1:0,0:0:30,0:0:0,0:0:0,0:0:56,24:1:0,0:0:30,0:0:0,0:0:56,0:0:0,0:0:0,0:0:30,24:1:0,0:0:30,18:15:0,12:13:0,18:15:0,0:0:30,0:0:56,24:1:0,0:0:27,0:0:33,24:1:0,0:0:30,0:0:56,24:15:0,16:13:0,8:5:0,16:13:0,24:15:0,0:0:58,0:0:37,0:0:37,0:0:37,0:0:37,0:0:37,24:1:0,0:0:0,0:0:0,0:0:0,24:2:0,24:2:0,24:2:0,24:2:0,24:5:0,12:13:0,24:5:0,24:2:0,48:17:0,0:100:0,
24:1:0,0:0:30,0:0:0,0:0:0,0:0:0,0:0:57,24:1:0,0:0:0,0:0:0,0:0:0,0:0:0,0:0:0,0:0:0,24:3:0,0:0:58,0:0:36,0:0:0,0:0:0,0:0:58,0:0:37,24:1:0,0:0:20,24:3:11,0:0:30,0:0:0,0:0:0,0:0:0,0:0:0,0:0:0,0:0:0,0:0:0,0:0:0,0:0:0,0:0:0,0:0:0,0:0:0,0:0:0,0:0:0,24:1:0,0:0:0,0:0:0,24:2:0,0:0:30,0:0:58,0:0:36,0:0:36,0:0:36,0:0:36,0:0:30,24:2:0,0:100:0,
24:1:0,0:0:0,0:0:0,24:1:0,24:1:0,24:1:0,24:1:0,0:0:0,48:2:0,48:2:0,24:5:0,0:0:0,0:0:58,24:1:0,0:0:36,0:0:36,0:0:0,0:0:0,0:0:37,0:0:37,24:1:0,24:1:0,0:0:30,0:0:0,0:0:0,24:15:0,24:15:0,0:0:3,0:0:0,0:0:0,24:15:0,24:15:0,0:0:0,0:0:0,12:18:0,0:0:2,0:0:58,0:0:0,0:0:0,24:1:0,0:0:0,24:2:0,0:0:37,0:0:0,0:0:0,0:0:2,12:5:0,0:0:56,0:0:36,24:2:0,0:100:0,
24:1:0,0:0:0,0:0:0,0:0:30,0:0:0,0:0:0,0:0:30,0:0:0,48:2:0,48:2:0,24:5:0,0:0:0,0:0:0,24:3:0,24:1:0,36:15:0,24:7:11,36:15:0,24:1:0,24:1:0,60:1:0,0:0:30,0:0:0,0:0:0,0:0:2,24:15:0,24:15:0,0:0:19,0:0:32,0:0:0,24:15:0,24:15:0,0:0:42,0:0:0,0:0:29,12:18:0,0:0:56,0:0:0,0:0:0,0:0:30,24:1:0,12:13:0,0:0:37,0:0:0,0:0:43,12:5:0,48:15:0,12:5:0,0:0:0,18:15:0,0:100:0,
24:1:0,0:0:0,0:0:0,0:0:0,48:2:0,48:2:0,0:0:0,0:0:0,0:0:32,0:0:32,0:0:0,0:0:0,0:0:0,0:0:0,0:0:0,0:0:0,0:0:0,0:0:0,0:0:37,0:0:37,48:5:0,0:0:0,0:0:0,0:0:0,0:0:58,0:0:0,0:0:0,0:0:0,12:13:0,0:0:58,0:0:0,0:0:0,0:0:0,0:0:0,0:0:0,0:0:29,12:18:0,0:0:0,0:0:0,24:3:0,0:0:30,0:0:0,0:0:0,0:0:0,0:0:0,0:0:30,12:5:0,0:0:0,0:0:0,12:5:0,0:100:0,
24:1:0,4:15:8,0:0:0,0:0:0,0:0:0,0:0:0,0:0:0,0:0:58,0:0:0,0:0:0,0:0:0,0:0:0,0:0:0,0:0:0,0:0:0,0:0:0,0:0:0,0:0:0,0:0:0,0:0:0,24:10:13,0:0:0,0:0:0,0:0:0,0:0:0,0:0:0,0:0:0,0:0:28,36:5:0,0:0:2,0:0:0,0:0:0,0:0:57,0:0:0,0:0:0,0:0:0,0:0:19,0:0:0,0:0:0,0:0:0,24:7:11,0:0:0,0:0:0,0:0:16,0:0:0,0:0:0,0:0:0,0:0:19,0:0:37,12:6:9,0:100:0,
24:1:0,0:0:0,0:0:0,0:0:0,48:2:0,48:2:0,0:0:0,0:0:0,0:0:32,0:0:32,0:0:0,0:0:0,0:0:0,0:0:0,0:0:0,0:0:0,0:0:0,0:0:0,0:0:37,0:0:37,48:5:0,0:0:0,0:0:0,0:0:0,0:0:58,0:0:0,0:0:0,0:0:0,12:13:0,0:0:58,0:0:0,0:0:0,0:0:0,0:0:0,0:0:0,0:0:29,12:18:0,0:0:0,0:0:0,24:3:0,0:0:30,0:0:0,0:0:0,0:0:0,0:0:0,0:0:30,12:5:0,0:0:0,0:0:0,12:5:0,0:100:0,
24:1:0,0:0:0,0:0:0,0:0:30,0:0:0,0:0:0,0:0:30,0:0:0,48:2:0,48:2:0,24:5:0,0:0:0,0:0:0,24:3:0,24:1:0,24:1:0,36:15:0,24:7:11,36:15:0,24:1:0,60:1:0,0:0:30,0:0:0,0:0:0,0:0:2,24:15:0,24:15:0,0:0:19,0:0:32,0:0:0,24:15:0,24:15:0,0:0:42,0:0:0,0:0:29,12:18:0,0:0:56,0:0:0,0:0:0,0:0:30,24:1:0,12:13:0,0:0:37,0:0:0,0:0:43,12:5:0,48:15:0,12:5:0,0:0:0,18:15:0,0:100:0,
24:1:0,24:1:0,24:1:0,24:1:0,24:1:0,24:1:0,24:1:0,0:0:0,48:2:0,48:2:0,24:5:0,0:0:0,0:0:58,24:1:0,0:0:30,0:0:0,0:0:0,0:0:0,0:0:0,0:0:0,0:0:30,24:1:0,0:0:30,0:0:0,0:0:0,24:15:0,24:15:0,0:0:3,0:0:0,0:0:0,24:15:0,24:15:0,0:0:0,0:0:0,12:18:0,0:0:2,0:0:58,0:0:0,0:0:0,24:1:0,0:0:0,24:2:0,0:0:37,0:0:0,0:0:0,0:0:2,12:5:0,0:0:56,0:0:36,24:2:0,0:100:0,
24:24:0,0:0:2,0:0:29,0:0:29,0:0:0,0:0:20,24:3:11,0:0:0,0:0:0,0:0:0,0:0:0,0:0:0,0:0:0,24:3:0,0:0:0,0:0:58,0:0:0,0:0:0,0:0:0,0:0:58,0:0:0,24:3:0,24:1:0,0:0:30,0:0:0,0:0:0,0:0:0,0:0:0,0:0:0,0:0:0,0:0:0,0:0:0,0:0:0,0:0:0,0:0:0,0:0:0,0:0:0,0:0:0,24:1:0,0:0:0,0:0:0,24:2:0,0:0:30,0:0:58,0:0:36,0:0:36,0:0:36,0:0:36,0:0:30,24:2:0,0:100:0,
24:24:0,12:23:0,0:0:3,0:0:3,0:0:0,0:0:0,24:1:0,0:0:30,0:0:0,0:0:2,12:21:0,0:0:0,0:0:30,24:1:0,0:0:0,0:0:36,12:19:58,0:0:37,12:19:58,0:0:36,0:0:0,24:1:0,0:0:0,24:1:0,0:0:30,0:0:56,24:15:0,16:13:0,8:5:0,16:13:0,24:15:0,0:0:58,0:0:36,0:0:36,0:0:36,0:0:36,0:0:36,24:1:0,0:0:0,0:0:0,0:0:0,24:2:0,24:2:0,24:2:0,24:2:0,24:5:0,12:13:0,24:5:0,24:2:0,48:17:0,0:100:0,
24:24:0,0:0:21,0:0:0,0:0:0,0:0:0,0:0:0,24:1:0,24:1:0,24:1:0,24:1:0,24:1:0,24:1:0,24:1:0,24:1:0,0:0:30,0:0:37,24:2:0,18:8:10,24:2:0,0:0:37,0:0:0,24:1:0,0:0:0,0:0:0,24:1:0,24:1:0,24:1:0,24:16:0,36:17:0,24:16:0,24:1:0,24:1:0,24:1:0,24:1:0,24:1:0,24:1:0,24:1:0,0:0:0,0:0:0,0:0:0,0:0:0,0:0:0,0:0:0,0:0:0,0:0:0,0:0:0,0:0:0,0:0:0,0:0:0,0:0:0,0:100:0,
24:24:0,12:23:0,0:0:3,0:0:3,0:0:0,0:0:0,24:2:0,0:0:30,0:0:38,0:0:29,0:0:32,0:0:29,0:0:38,0:0:30,0:0:0,0:0:36,12:19:58,0:0:37,12:19:58,0:0:36,0:0:3,24:1:0,0:0:0,0:0:0,0:0:0,0:0:0,0:0:0,0:0:0,0:0:0,0:0:0,0:0:0,0:0:0,0:0:0,0:0:0,0:0:0,0:0:0,0:0:0,0:0:0,0:0:0,0:0:0,0:0:0,0:0:0,0:0:0,0:0:0,0:0:0,0:0:0,0:0:0,0:0:0,0:0:0,0:0:0,0:100:0,
24:24:0,0:0:2,0:0:29,0:0:29,0:0:0,0:0:0,24:2:0,0:0:32,0:0:0,0:0:0,0:0:0,0:0:58,0:0:0,0:0:0,0:0:0,0:0:0,0:0:0,0:0:0,0:0:0,0:0:0,0:0:0,24:1:0,0:0:0,0:0:0,0:0:0,0:0:0,0:0:0,0:0:0,0:0:0,0:0:0,0:0:0,0:0:0,0:0:0,0:0:0,0:0:0,0:0:0,0:0:0,0:0:0,0:0:0,0:0:0,0:0:0,0:0:0,0:0:0,0:0:0,0:0:0,0:0:0,0:0:0,0:0:0,0:0:0,0:0:0,0:100:0,
24:22:0,24:22:0,24:2:0,24:2:0,24:2:0,24:2:0,24:2:0,0:0:30,0:0:0,0:0:36,0:0:42,0:0:43,0:0:42,0:0:36,0:0:0,0:0:0,0:0:0,0:0:37,0:0:0,0:0:0,12:21:0,24:1:0,0:0:0,0:0:0,0:0:0,0:0:0,0:0:0,0:0:0,0:0:0,0:0:0,0:0:0,0:0:0,0:0:0,0:0:0,0:0:0,0:0:0,0:0:0,0:0:0,0:0:0,0:0:0,0:0:0,0:0:0,0:0:0,0:0:0,0:0:0,0:0:0,0:0:0,0:0:0,0:0:0,0:0:0,0:100:0,
24:22:0,0:0:5,0:0:0,0:0:3,0:0:0,0:0:31,0:0:19,0:0:0,0:0:0,0:0:0,0:0:0,0:0:58,0:0:0,0:0:0,0:0:0,0:0:0,0:0:37,0:0:39,0:0:37,0:0:0,0:0:0,24:1:0,0:0:0,0:0:0,0:0:0,0:0:0,0:0:0,0:0:0,0:0:0,0:0:0,0:0:0,0:0:0,0:0:0,0:0:0,0:0:0,0:0:0,0:0:0,0:0:0,0:0:0,0:0:0,0:0:0,0:0:0,0:0:0,0:0:0,0:0:0,0:0:0,0:0:0,0:0:0,0:0:0,0:0:0,0:100:0,
24:22:0,0:0:2,0:0:0,0:0:3,0:0:0,0:0:31,0:0:19,0:0:0,0:0:0,0:0:0,0:0:0,0:0:37,0:0:37,0:0:37,0:0:0,0:0:0,0:0:0,0:0:37,0:0:0,0:0:0,0:0:30,24:3:0,0:0:0,0:0:0,0:0:0,0:0:0,0:0:0,0:0:0,0:0:0,0:0:0,0:0:0,0:0:0,0:0:0,0:0:0,0:0:0,0:0:0,0:0:0,0:0:0,0:0:0,0:0:0,0:0:0,0:0:0,0:0:0,0:0:0,0:0:0,0:0:0,0:0:0,0:0:0,0:0:0,0:0:0,0:100:0,
24:22:0,24:22:0,24:2:0,24:2:0,24:2:0,24:2:0,20:15:0,16:5:0,12:13:0,16:5:0,20:15:0,24:1:0,24:1:0,24:1:0,24:4:0,24:4:0,24:4:0,24:1:0,24:1:0,24:1:0,24:3:0,48:16:0,0:0:0,0:0:0,0:0:0,0:0:0,0:0:0,0:0:0,0:0:0,0:0:0,0:0:0,0:0:0,0:0:0,0:0:0,0:0:0,0:0:0,0:0:0,0:0:0,0:0:0,0:0:0,0:0:0,0:0:0,0:0:0,0:0:0,0:0:0,0:0:0,0:0:0,0:0:0,0:0:0,0:0:0,0:100:0,
0:0:0,0:0:0,0:0:0,0:0:0,0:0:0,0:0:0,24:1:0,24:1:0,24:1:0,24:1:0,24:1:0,0:0:0,0:0:0,0:0:0,0:0:0,0:0:0,0:0:0,0:0:0,0:0:0,0:0:0,0:0:0,0:0:0,0:0:0,0:0:0,0:0:0,0:0:0,0:0:0,0:0:0,0:0:0,0:0:0,0:0:0,0:0:0,0:0:0,0:0:0,0:0:0,0:0:0,0:0:0,0:0:0,0:0:0,0:0:0,0:0:0,0:0:0,0:0:0,0:0:0,0:0:0,0:0:0,0:0:0,0:0:0,0:0:0,0:0:0,0:100:0,
