Map04: The Citidal Gates
48:3:0,48:3:0,48:3:0,48:3:0,48:4:0,48:3:0,48:3:0,48:3:0,48:3:0,48:3:0,48:3:0,48:3:0,48:3:0,48:3:0,48:3:0,48:3:0,48:3:0,48:3:0,48:3:0,48:3:0,48:3:0,48:3:0,48:3:0,0:0:0,0:0:0,0:0:0,0:100:0,
48:13:0,0:0:8,0:0:0,0:0:3,0:0:0,0:0:0,0:0:0,0:0:0,0:0:21,0:0:16,0:0:0,0:0:0,48:3:0,48:3:0,48:3:0,48:3:0,48:3:0,48:3:0,0:0:51,0:0:30,0:0:51,48:3:0,48:3:0,0:0:0,0:0:0,0:0:0,0:100:0,
48:3:0,48:4:0,48:3:0,48:3:0,48:3:0,48:3:0,48:3:0,48:3:0,48:3:0,1:1:0,64:3:0,0:0:0,0:0:0,0:0:0,0:0:0,0:0:36,0:0:37,48:15:11,0:0:20,0:0:0,0:0:0,48:14:0,0:0:0,0:0:0,60:15:0,0:0:35,0:100:0,
48:3:0,12:1:6,48:3:0,9:1:18,9:1:2,48:3:0,48:3:0,48:3:0,48:3:0,2:1:0,64:3:0,0:0:0,0:0:0,0:0:17,0:0:0,12:13:0,0:0:19,48:3:0,0:0:0,0:0:0,0:0:0,48:4:0,0:0:0,60:15:0,0:0:0,0:0:0,0:100:0,
48:3:0,11:1:0,10:1:16,9:1:0,8:1:0,7:1:0,6:1:3,5:1:0,4:1:19,3:1:0,64:3:0,0:0:58,0:0:0,0:0:58,0:0:0,0:0:36,0:0:37,48:15:0,0:0:3,4:13:27,2:5:0,48:4:0,0:0:0,0:0:0,0:0:0,60:15:0,0:100:0,
60:1:0,60:3:0,10:1:0,48:3:0,8:1:0,7:1:0,6:1:0,5:1:16,4:1:0,3:1:0,60:15:0,0:0:0,0:0:58,48:3:0,48:3:0,48:3:0,48:3:0,48:3:0,0:0:0,0:0:0,0:0:19,48:14:0,0:0:0,0:0:0,0:0:0,0:0:0,0:100:0,
36:1:17,10:1:49,10:1:0,48:3:0,48:3:0,48:3:0,48:3:0,48:15:0,48:3:0,48:3:0,2:2:50,0:0:0,0:0:0,48:3:0,0:0:26,0:0:36,0:0:0,48:3:0,48:3:0,48:3:0,48:3:0,48:3:0,0:0:0,0:0:0,0:0:0,0:0:0,0:100:0,
60:1:0,60:3:0,54:3:0,48:3:0,0:0:36,0:0:37,0:0:37,0:0:37,0:0:37,48:3:0,60:15:0,0:0:0,0:0:18,48:3:0,0:0:36,0:0:36,0:0:0,0:0:20,0:0:0,0:0:0,0:0:0,0:0:0,0:0:0,0:0:0,0:0:0,0:0:0,0:100:0,
12:2:0,0:0:37,0:0:37,0:0:0,0:0:0,0:0:0,0:0:0,0:0:0,0:0:0,3:5:21,12:2:0,12:11:14,12:11:14,12:2:0,12:2:0,12:2:0,12:5:0,12:13:11,12:2:0,12:2:0,12:2:0,48:15:0,0:0:0,0:0:0,0:0:0,0:0:0,0:100:0,
12:5:0,0:0:37,0:0:0,0:0:0,0:0:0,1:2:19,0:0:0,0:0:0,0:0:0,0:0:0,0:0:0,0:0:0,0:0:0,0:0:0,0:0:0,0:0:16,0:0:0,0:0:0,0:0:0,0:0:0,0:0:58,12:5:0,0:0:0,0:0:0,60:15:0,0:0:0,0:100:0,
12:5:0,0:0:0,12:21:5,0:0:0,0:0:0,0:0:0,2:2:0,0:0:0,0:0:0,0:0:0,12:21:0,0:0:0,0:0:0,0:0:0,0:0:0,0:0:0,0:0:0,0:0:0,0:0:0,0:0:3,0:0:58,12:5:0,0:0:0,0:0:0,0:0:0,0:0:0,0:100:0,
12:13:0,0:0:32,0:0:0,0:0:16,0:0:31,0:0:0,3:2:0,0:0:0,0:0:2,0:0:0,0:0:0,0:0:3,0:0:0,0:0:31,0:0:0,0:0:0,0:0:0,0:0:0,0:0:0,0:0:0,0:0:58,12:5:0,0:0:0,0:0:0,0:0:0,0:0:0,0:100:0,
12:13:2,0:0:0,12:21:0,0:0:0,0:0:0,4:2:0,0:0:0,0:0:31,0:0:18,0:0:0,0:0:19,0:0:0,0:0:0,0:0:0,0:0:0,64:15:0,0:0:0,0:0:0,0:0:2,0:0:16,0:0:0,12:13:0,0:0:0,0:0:0,0:0:0,0:0:0,0:100:0,
12:13:0,0:0:32,0:0:19,0:0:0,0:0:0,0:0:36,0:0:0,0:0:58,0:0:0,0:0:31,0:0:0,6:13:3,3:2:0,0:0:0,64:15:0,0:0:17,64:15:0,0:0:0,0:0:31,0:0:0,0:0:0,12:13:0,0:0:0,0:0:0,0:0:0,0:0:0,0:100:0,
12:15:0,0:0:0,16:21:16,0:0:0,0:0:0,5:21:0,0:0:0,7:21:0,0:0:0,0:0:0,0:0:0,7:2:29,0:0:0,0:0:0,0:0:0,0:0:58,0:0:0,0:0:0,0:0:0,0:0:0,0:0:19,12:5:0,0:0:0,0:0:0,0:0:0,0:0:0,0:100:0,
12:5:0,0:0:0,0:0:36,0:0:0,0:0:0,0:0:36,0:0:0,0:0:0,0:0:0,0:0:0,0:0:0,0:0:58,0:0:0,0:0:0,0:0:3,0:0:0,0:0:0,0:0:0,0:0:0,12:21:0,0:0:2,12:5:0,0:0:0,0:0:0,60:2:0,0:0:0,0:100:0,
12:5:0,0:0:0,0:0:36,0:0:0,0:0:18,11:21:16,0:0:0,9:21:0,0:0:0,60:24:0,0:0:0,0:0:0,0:0:0,0:0:0,24:22:0,24:22:0,24:22:0,24:7:11,24:22:0,24:22:0,24:22:0,24:22:0,0:0:0,0:0:0,0:0:0,60:13:0,0:100:0,
12:15:0,0:0:0,24:13:0,48:24:0,48:24:0,0:0:0,0:0:0,0:0:3,0:0:0,0:0:0,0:0:0,0:0:0,0:0:0,0:0:0,48:3:0,0:0:16,0:0:0,0:0:0,0:0:0,12:23:0,0:0:19,12:4:0,0:0:0,0:0:0,60:2:0,0:0:0,0:100:0,
12:5:0,0:0:17,24:13:0,0:0:0,21:3:0,14:2:0,0:0:0,0:0:0,0:0:0,0:0:0,0:0:0,24:15:0,0:0:16,0:0:0,24:22:0,0:0:2,12:22:0,0:0:0,12:22:0,12:22:0,0:0:3,12:22:0,0:0:0,0:0:0,0:0:0,0:0:0,0:100:0,
24:2:50,0:0:37,0:0:37,0:0:17,18:3:0,16:1:0,0:0:0,0:0:0,12:21:28,0:0:0,0:0:0,0:0:19,0:0:0,0:0:0,48:3:0,0:0:16,0:0:30,0:0:58,0:0:30,0:0:0,0:0:19,12:4:0,0:0:0,0:0:0,0:0:0,0:0:0,0:100:0,
12:5:0,0:0:37,0:0:37,26:2:16,0:0:0,0:0:0,0:0:0,0:0:57,0:0:0,0:0:0,0:0:0,0:0:0,0:0:0,0:0:0,24:22:0,0:0:0,12:22:0,0:0:0,12:22:0,0:0:0,0:0:0,12:22:0,0:0:0,0:0:0,0:0:0,0:0:0,0:100:0,
12:13:0,0:0:0,0:0:0,0:0:0,0:0:0,0:0:0,0:0:29,0:0:0,0:0:29,0:0:0,0:0:0,0:0:0,0:0:31,0:0:0,48:3:0,0:0:0,0:0:30,12:23:0,0:0:30,0:0:58,12:22:0,12:4:0,0:0:0,0:0:0,0:0:0,0:0:0,0:100:0,
12:15:0,0:0:0,0:0:31,0:0:0,48:1:0,0:0:0,48:1:0,48:9:12,48:1:0,0:0:19,48:1:0,0:0:0,0:0:0,0:0:0,24:22:0,0:0:16,12:22:0,0:0:4,12:22:0,12:22:0,0:0:19,12:22:0,0:0:0,0:0:0,0:0:0,0:0:0,0:100:0,
12:2:0,0:0:0,0:0:0,0:0:0,0:0:0,48:1:0,0:0:29,0:0:18,0:0:29,48:1:0,0:0:0,0:0:17,0:0:37,0:0:0,48:3:0,0:0:0,12:22:0,12:10:13,12:22:0,0:0:0,0:0:0,12:4:0,0:0:0,0:0:0,0:0:0,0:0:0,0:100:0,
12:2:0,0:0:58,0:0:58,0:0:58,48:1:0,0:0:39,0:0:29,0:0:19,0:0:29,0:0:43,48:1:0,0:0:0,0:0:0,0:0:0,24:22:0,0:0:19,0:0:2,0:0:0,0:0:2,0:0:0,0:0:0,12:22:0,0:0:0,0:0:0,0:0:0,0:0:0,0:100:0,
12:2:0,0:0:34,0:0:47,0:0:42,48:1:0,0:0:0,0:0:58,0:0:0,0:0:58,0:0:0,48:1:0,0:0:3,0:0:50,0:0:16,48:3:0,0:0:0,0:0:0,0:0:18,0:0:0,0:0:0,0:0:0,12:4:0,0:0:0,0:0:0,0:0:0,0:0:0,0:100:0,
12:1:0,12:1:0,12:1:0,12:1:0,48:1:0,0:0:0,60:3:0,0:0:0,60:3:0,0:0:0,48:1:0,12:1:0,12:1:0,12:1:0,12:1:0,0:0:0,0:0:0,0:0:3,0:0:0,0:0:0,0:0:0,12:1:0,0:0:0,0:0:0,0:0:0,0:0:0,0:100:0,
0:0:0,0:0:0,0:0:0,48:1:0,0:0:16,0:0:0,0:0:19,0:0:0,0:0:19,0:0:0,0:0:16,48:1:0,0:0:0,0:0:0,12:1:0,0:0:0,60:15:0,0:0:0,60:15:0,0:0:0,6:21:0,12:1:0,0:0:0,0:0:0,0:0:0,0:0:0,0:100:0,
0:0:0,0:0:0,0:0:0,48:1:0,0:0:0,3:22:0,0:0:29,64:15:0,0:0:29,3:22:0,0:0:0,48:1:0,0:0:0,0:0:0,12:1:0,48:3:0,0:0:19,0:0:0,0:0:19,48:3:0,0:0:2,12:1:0,0:0:0,0:0:0,0:0:0,0:0:0,0:100:0,
0:0:0,0:0:0,0:0:0,48:1:0,0:0:3,6:21:41,0:0:0,0:0:17,0:0:0,6:21:40,0:0:3,48:1:0,0:0:0,0:0:0,12:1:0,48:3:0,0:0:50,0:0:58,0:0:50,48:3:0,12:1:0,12:1:0,0:0:0,0:0:0,0:0:0,0:0:0,0:100:0,
0:0:0,0:0:0,0:0:0,48:1:0,0:0:37,0:0:19,64:3:0,0:0:0,64:3:0,0:0:19,0:0:36,48:1:0,0:0:0,0:0:0,12:1:0,48:13:0,12:1:0,12:6:11,12:1:0,48:13:0,12:1:0,12:1:0,0:0:0,0:0:0,0:0:0,0:0:0,0:100:0,
0:0:0,0:0:0,0:0:0,48:1:0,0:0:37,0:0:0,0:0:17,0:0:33,0:0:17,0:0:0,0:0:36,48:1:0,0:0:0,0:0:0,12:1:0,12:3:0,12:3:0,0:0:18,12:3:0,12:3:0,12:1:0,12:1:0,0:0:0,0:0:0,0:0:0,0:0:0,0:100:0,
0:0:0,0:0:0,0:0:0,48:1:0,0:0:37,0:0:0,0:0:29,0:0:2,0:0:29,0:0:0,0:0:36,48:1:0,0:0:0,0:0:0,12:1:0,12:3:0,12:3:0,0:0:19,12:3:0,12:3:0,12:1:0,12:1:0,0:0:0,0:0:0,0:0:0,0:0:0,0:100:0,
0:0:0,0:0:0,0:0:0,48:1:0,12:4:0,24:4:0,48:4:0,0:0:0,48:4:0,24:4:0,12:4:0,48:1:0,0:0:0,0:0:0,12:1:0,12:3:0,12:3:0,0:0:50,12:3:0,12:3:0,12:1:0,12:1:0,0:0:0,0:0:0,0:0:0,0:0:0,0:100:0,
0:0:0,0:0:0,0:0:0,48:1:0,0:0:36,0:0:0,0:0:0,0:0:0,0:0:0,0:0:0,0:0:36,48:1:0,0:0:0,0:0:0,12:1:0,12:3:0,12:3:0,12:3:0,12:3:0,12:3:0,12:1:0,12:1:0,0:0:0,0:0:0,0:0:0,0:0:0,0:100:0,
0:0:0,0:0:0,0:0:0,48:1:0,48:1:0,0:0:29,0:0:0,0:0:0,0:0:0,0:0:29,48:1:0,48:1:0,0:0:0,0:0:0,0:0:0,0:0:0,0:0:0,0:0:0,0:0:0,0:0:0,0:0:0,0:0:0,0:0:0,0:0:0,0:0:0,0:0:0,0:100:0,
0:0:0,0:0:0,0:0:0,48:1:0,0:0:0,48:1:0,0:0:29,0:0:0,0:0:29,48:1:0,0:0:0,48:1:0,0:0:0,0:0:0,0:0:0,0:0:0,0:0:0,0:0:0,0:0:0,0:0:0,0:0:0,0:0:0,0:0:0,0:0:0,0:0:0,0:0:0,0:100:0,
0:0:0,0:0:0,0:0:0,48:1:0,0:0:0,0:0:0,48:1:0,0:0:48,48:1:0,0:0:0,0:0:0,48:1:0,0:0:0,0:0:0,0:0:0,0:0:0,0:0:0,0:0:0,0:0:0,0:0:0,0:0:0,0:0:0,0:0:0,0:0:0,0:0:0,0:0:0,0:100:0,
0:0:0,0:0:0,0:0:0,48:1:0,0:0:0,0:0:0,0:0:0,48:7:0,0:0:0,0:0:0,0:0:0,48:1:0,0:0:0,0:0:0,0:0:0,0:0:0,0:0:0,0:0:0,0:0:0,0:0:0,0:0:0,0:0:0,0:0:0,0:0:0,0:0:0,0:0:0,0:100:0,
